…
``` r
# Q16. Display the stop_words dataset from the tidytext package 
# they, than, the, an, a, 
library(tidytext)
tidytext::stop_words
```

    ## # A tibble: 1,149 x 2
    ##    word        lexicon
    ##    <chr>       <chr>  
    ##  1 a           SMART  
    ##  2 a's         SMART  
    ##  3 able        SMART  
    ##  4 about       SMART  
    ##  5 above       SMART  
    ##  6 according   SMART  
    ##  7 accordingly SMART  
    ##  8 across      SMART  
    ##  9 actually    SMART  
    ## 10 after       SMART  
    ## # ... with 1,139 more rows
…
    ## Joining, by = "word"

``` r
top_keywords
```

    ## # A tibble: 11,025 x 2
    ##    word            n
    ##    <chr>       <int>
    ##  1 data         1573
    ##  2 experience    815
    ##  3 business      682
    ##  4 team          472
    ##  5 including     460
    ##  6 management    394
    ##  7 information   378
    ##  8 skills        378
    ##  9 analytics     376
    ## 10 support       350
    ## # ... with 11,015 more rows
…
